<?xml version="1.0" encoding="UTF-8"?>
<svg width="20px" height="80px" viewBox="0 0 20 80" version="1.1" xmlns="http://www.w3.org/2000/svg" xmlns:xlink="http://www.w3.org/1999/xlink">
    <!-- Generator: Sketch 46.2 (44496) - http://www.bohemiancoding.com/sketch -->
    <title>Sprite Check</title>
    <desc>Created with Sketch.</desc>
    <defs></defs>
    <g id="Elements" stroke="none" stroke-width="1" fill="none" fill-rule="evenodd">
        <g id="Sprite-Check" fill-rule="nonzero">
            <polygon id="Path-4" fill="#D3D3D3" points="5.86529602 8.06949793 4 9.76219329 7.86565561 14 16 6.87318035 14.3050722 5 8.08168718 10.542649"></polygon>
            <polygon id="Path-4" fill="#00AFEC" points="5.86529602 28.0694979 4 29.7621933 7.86565561 34 16 26.8731804 14.3050722 25 8.08168718 30.542649"></polygon>
            <polygon id="Path-4" fill="#FFFFFF" points="5.86529602 68.0694979 4 69.7621933 7.86565561 74 16 66.8731804 14.3050722 65 8.08168718 70.542649"></polygon>
        </g>
    </g>
</svg>